// Jest Snapshot v1, https://goo.gl/fbAQLP

exports[`check all items are rendered correctly 1`] = `
<ul>
  <li>
    Shark
  </li>
  <li>
    Dolphin
  </li>
  <li>
    Octopus
  </li>
</ul>
`;

exports[`enzyme test 1`] = `
<Items
  items={
    Array [
      "Shark",
      "Dolphin",
      "Octopus",
    ]
  }
/>
`;

exports[`renders correctly when there are no items 1`] = `
<span>
  No items present in list
</span>
`;
